[gd_scene load_steps=2 format=2]

[ext_resource path="res://components/player.gd" type="Script" id=1]

[node name="KinematicBody2D" type="KinematicBody2D"]
scale = Vector2( 0.510382, 0.510382 )
script = ExtResource( 1 )

[node name="Polygon2D" type="Polygon2D" parent="."]
position = Vector2( 0.475647, 0 )
polygon = PoolVector2Array( -0.356735, -44.9493, -34.1282, 33.0579, 32.7012, 33.0579 )

[node name="CollisionPolygon2D" type="CollisionPolygon2D" parent="."]
polygon = PoolVector2Array( 0.594559, -44.9493, -33.8903, 33.7714, 32.939, 33.5336 )

