[gd_scene load_steps=3 format=2]

[ext_resource path="res://src/destroyable_wall.gd" type="Script" id=1]

[sub_resource type="RectangleShape2D" id=1]
extents = Vector2( 15.8054, 15.9082 )

[node name="red_wall" type="StaticBody2D"]
collision_layer = 8
collision_mask = 3
script = ExtResource( 1 )

[node name="Polygon2D" type="Polygon2D" parent="."]
color = Color( 1, 0.266667, 0.278431, 1 )
polygon = PoolVector2Array( 0, 0, 32, 0, 32, 32, 0, 32 )

[node name="CollisionShape2D" type="CollisionShape2D" parent="."]
position = Vector2( 16, 16 )
shape = SubResource( 1 )

